# Blender MTL File: 'None'
# Material Count: 1
newmtl Untitled_Axe_Diffuse.psd
Ns 96.078431
Ka 0.000000 0.000000 0.000000
Kd 0.640000 0.640000 0.640000
Ks 1.000000 1.000000 1.000000
Ni 1.000000
d 1.000000
illum 2
map_Kd Axe_Diffuse.psd


